{
  "display": "Mi 6X",
  "product": "miui",
  "device": "miui",
  "board": "miui",
  "model": "miui",
  "finger_print": "mamoe/miui/miui:10/Mi.6X/6516797:user/release-keys",
  "boot_id": "11bddd8e-1c90-4b5b-7032-ad12009ffbcd",
  "proc_version": "Linux version 4.10.3 (android-build@xda.com)",
  "protocol": 5,
  "imei": "684541603769599",
  "brand": "mamoe",
  "bootloader": "unknown",
  "base_band": "",
  "version": { "incremental": "5891939", "release": "10", "codename": "REL", "sdk": 29 },
  "sim_info": "T-Mobile",
  "os_type": "android",
  "mac_address": "00:50:56:C0:00:07",
  "ip_address": [10, 0, 1, 3],
  "wifi_bssid": "00:50:56:C0:00:08",
  "wifi_ssid": "\u003cunknown ssid\u003e",
  "imsi_md5": "f25df17445795dbe02869644486ffb41",
  "android_id": "8bde72f065fbb74c",
  "apn": "wifi",
  "vendor_name": "MIUI",
  "vendor_os_name": "miui"
}
